[1m[34mSMB[0m         10.10.10.193    445    FUSE             [1m[34m[*][0m Windows Server 2016 Standard 14393 (name:FUSE) (domain:fabricorp.local) (signing:True) (SMBv1:True)
[1m[34mSMB[0m         10.10.10.193    445    FUSE             [1m[31m[-][0m fabricorp.local\Administrator:$fab@s3Rv1ce$1 STATUS_LOGON_FAILURE 
[1m[34mSMB[0m         10.10.10.193    445    FUSE             [1m[31m[-][0m fabricorp.local\Guest:$fab@s3Rv1ce$1 STATUS_LOGON_FAILURE 
[1m[34mSMB[0m         10.10.10.193    445    FUSE             [1m[31m[-][0m fabricorp.local\krbtgt:$fab@s3Rv1ce$1 STATUS_LOGON_FAILURE 
[1m[34mSMB[0m         10.10.10.193    445    FUSE             [1m[31m[-][0m fabricorp.local\DefaultAccount:$fab@s3Rv1ce$1 STATUS_LOGON_FAILURE 
[1m[34mSMB[0m         10.10.10.193    445    FUSE             [1m[32m[+][0m fabricorp.local\svc-print:$fab@s3Rv1ce$1 [1m[33m[0m
[1m[34mSMB[0m         10.10.10.193    445    FUSE             [1m[31m[-][0m fabricorp.local\bnielson:$fab@s3Rv1ce$1 STATUS_ACCESS_DENIED 
[1m[34mSMB[0m         10.10.10.193    445    FUSE             [1m[31m[-][0m fabricorp.local\sthompson:$fab@s3Rv1ce$1 STATUS_ACCESS_DENIED 
[1m[34mSMB[0m         10.10.10.193    445    FUSE             [1m[31m[-][0m fabricorp.local\tlavel:$fab@s3Rv1ce$1 STATUS_ACCESS_DENIED 
[1m[34mSMB[0m         10.10.10.193    445    FUSE             [1m[31m[-][0m fabricorp.local\pmerton:$fab@s3Rv1ce$1 STATUS_ACCESS_DENIED 
[1m[34mSMB[0m         10.10.10.193    445    FUSE             [1m[31m[-][0m fabricorp.local\svc-scan:$fab@s3Rv1ce$1 STATUS_ACCESS_DENIED 
[1m[34mSMB[0m         10.10.10.193    445    FUSE             [1m[31m[-][0m fabricorp.local\bhult:$fab@s3Rv1ce$1 STATUS_ACCESS_DENIED 
[1m[34mSMB[0m         10.10.10.193    445    FUSE             [1m[31m[-][0m fabricorp.local\dandrews:$fab@s3Rv1ce$1 STATUS_ACCESS_DENIED 
[1m[34mSMB[0m         10.10.10.193    445    FUSE             [1m[31m[-][0m fabricorp.local\mberbatov:$fab@s3Rv1ce$1 STATUS_ACCESS_DENIED 
[1m[34mSMB[0m         10.10.10.193    445    FUSE             [1m[31m[-][0m fabricorp.local\astein:$fab@s3Rv1ce$1 STATUS_ACCESS_DENIED 
[1m[34mSMB[0m         10.10.10.193    445    FUSE             [1m[31m[-][0m fabricorp.local\dmuir:$fab@s3Rv1ce$1 STATUS_ACCESS_DENIED 
